01/10/20 09:27

8.6 (3 points):
Score += 3

8.7 (3 points):
Score += 3

8.8 (3 points):
no state diagram
Score += 2

Completion (1 points):
Score += 1

Total score: 9/10 = 90.0%

Great job!

-------------------------------------------------------------------------------

