01/14/20 10:45

8.10 (3 points):
Score += 3

8.11 (3 points):
Score += 3

Completion (1 points):
Score += 1

Total score: 7/7 = 100.0%

Excellent!

-------------------------------------------------------------------------------

