01/15/20 10:56

8.12 (3 points):
Score += 3

8.14 (3 points):
Score += 3

8.17 (3 points):
Score += 3

Completion (1 points):
Score += 1

Total score: 10/10 = 100.0%

Excellent!

-------------------------------------------------------------------------------

